^C:\USERS\TOM\SOURCE\REPOS\PROJECTSPARALLEL\PROJECT_2_2\DEBUG\MAIN.OBJ
C:\USERS\TOM\SOURCE\REPOS\PROJECTSPARALLEL\DEBUG\PROJECT_2_2.EXE
C:\USERS\TOM\SOURCE\REPOS\PROJECTSPARALLEL\DEBUG\PROJECT_2_2.ILK
C:\USERS\TOM\SOURCE\REPOS\PROJECTSPARALLEL\DEBUG\PROJECT_2_2.PDB
^C:\USERS\TOM\SOURCE\REPOS\LEARNING_C\PROJECTSPARALLEL\PROJECT_2_2\DEBUG\MAIN.OBJ
C:\USERS\TOM\SOURCE\REPOS\LEARNING_C\PROJECTSPARALLEL\DEBUG\PROJECT_2_2.EXE
C:\USERS\TOM\SOURCE\REPOS\LEARNING_C\PROJECTSPARALLEL\DEBUG\PROJECT_2_2.ILK
C:\USERS\TOM\SOURCE\REPOS\LEARNING_C\PROJECTSPARALLEL\DEBUG\PROJECT_2_2.PDB
