^C:\USERS\TOM\SOURCE\REPOS\PROJECTSPARALLEL\PROJECT_0_3\DEBUG\MAIN.OBJ
C:\USERS\TOM\SOURCE\REPOS\PROJECTSPARALLEL\DEBUG\PROJECT_0_3.ILK
C:\USERS\TOM\SOURCE\REPOS\PROJECTSPARALLEL\DEBUG\PROJECT_0_3.EXE
C:\USERS\TOM\SOURCE\REPOS\PROJECTSPARALLEL\DEBUG\PROJECT_0_3.PDB
